{
  "@self" : "/csa/api/topology-model/topology/9bfb6468-c92a-41d4-aebd-268403939546",
  "@type" : "urn:x-hp:2013:software:cloud:topology_model:topology",
  "groupId" : "com.hp.csa",
  "artifactId" : "b638d89f-e7d3-4166-b088-859fe2795ffa",
  "version" : "1.0.0",
  "displayName" : "PetClinic",
  "description" : "A partial PetClinic Application design requiring an infrastructure with Database and Application Server for fulfillment.",
  "resources" : [ {
    "id" : "NewPetClinicApplication_be9f0cf28800410cb95b57179fa310fd__VERSION__1__GROUPID__com.hp.csa.type0001",
    "name" : "PetClinic Application",
    "component" : {
      "@self" : "/csa/api/topology-model/component-type/a64832f0-86de-4664-b659-8654df09e214",
      "groupId" : "com.hp.csa.type",
      "artifactId" : "NewPetClinicApplication_be9f0cf28800410cb95b57179fa310fd",
      "version" : "1"
    },
    "properties" : [ {
      "propertyKey" : "port",
      "propertyValue" : {
        "value" : "22",
        "type" : "string"
      }
    }, {
      "propertyKey" : "mysqlusername",
      "propertyValue" : {
        "value" : null,
        "type" : "string"
      }
    }, {
      "propertyKey" : "apphostname",
      "propertyValue" : {
        "value" : null,
        "type" : "string"
      }
    }, {
      "propertyKey" : "Result",
      "propertyValue" : {
        "value" : null,
        "type" : "string"
      }
    }, {
      "propertyKey" : "servicecommand",
      "propertyValue" : {
        "value" : "sh /tmp/petclinic_jdbc_conf.sh",
        "type" : "string"
      }
    }, {
      "propertyKey" : "artifactusername",
      "propertyValue" : {
        "value" : null,
        "type" : "string"
      }
    }, {
      "propertyKey" : "dbhostname",
      "propertyValue" : {
        "value" : null,
        "type" : "string"
      }
    }, {
      "propertyKey" : "localfilepath",
      "propertyValue" : {
        "value" : "petclinic.war",
        "type" : "string"
      }
    }, {
      "propertyKey" : "artifactpassword",
      "propertyValue" : {
        "value" : null,
        "type" : "string"
      }
    }, {
      "propertyKey" : "tomcathome",
      "propertyValue" : {
        "value" : null,
        "type" : "string"
      }
    }, {
      "propertyKey" : "_enable_modify_during_lifecycle_properties",
      "propertyValue" : {
        "value" : "",
        "type" : "string"
      }
    }, {
      "propertyKey" : "hostusername",
      "propertyValue" : {
        "value" : null,
        "type" : "string"
      }
    }, {
      "propertyKey" : "dbusername",
      "propertyValue" : {
        "value" : null,
        "type" : "string"
      }
    }, {
      "propertyKey" : "response",
      "propertyValue" : {
        "value" : null,
        "type" : "string"
      }
    }, {
      "propertyKey" : "remotefilepath",
      "propertyValue" : {
        "value" : "/tmp/",
        "type" : "string"
      }
    }, {
      "propertyKey" : "mysqlpassword",
      "propertyValue" : {
        "value" : null,
        "type" : "string"
      }
    }, {
      "propertyKey" : "_modifiable_properties",
      "propertyValue" : {
        "value" : "",
        "type" : "string"
      }
    }, {
      "propertyKey" : "dbpassword",
      "propertyValue" : {
        "value" : null,
        "type" : "string"
      }
    }, {
      "propertyKey" : "artifacturl",
      "propertyValue" : {
        "value" : "http://pocavm00.cloudapp.net:8080/job/PetClinic%20from%20Github/30/artifact/PetClinic/target/petclinic.war",
        "type" : "string"
      }
    }, {
      "propertyKey" : "privatekeyPath",
      "propertyValue" : {
        "value" : null,
        "type" : "string"
      }
    }, {
      "propertyKey" : "hostpassword",
      "propertyValue" : {
        "value" : null,
        "type" : "string"
      }
    }, {
      "propertyKey" : "configurationurl",
      "propertyValue" : {
        "value" : "https://localhost:8444/csa/PCRepo/petclinic_jdbc_conf.sh",
        "type" : "string"
      }
    } ],
    "outgoingRelations" : [ {
      "relationType" : "association",
      "id" : "rel0002",
      "properties" : [ {
        "propertyKey" : "_modifiable_properties",
        "propertyValue" : {
          "value" : "",
          "type" : "string"
        }
      }, {
        "propertyKey" : "_relation_type",
        "propertyValue" : {
          "value" : {
            "first" : "Association",
            "second" : "ASSOCIATION"
          },
          "type" : "pair"
        }
      }, {
        "propertyKey" : "_enable_modify_during_lifecycle_properties",
        "propertyValue" : {
          "value" : "",
          "type" : "string"
        }
      } ],
      "relationDescriptorName" : "configureDb_NewPetClinicApplication_be9f0cf28800410cb95b57179fa310fd__VERSION__1__GROUPID__com^hp^csa^type",
      "resourceReference" : {
        "name" : "PetClinic DB Conf"
      }
    }, {
      "relationType" : "association",
      "id" : "rel0003",
      "properties" : [ {
        "propertyKey" : "_modifiable_properties",
        "propertyValue" : {
          "value" : "",
          "type" : "string"
        }
      }, {
        "propertyKey" : "_relation_type",
        "propertyValue" : {
          "value" : {
            "first" : "Association",
            "second" : "ASSOCIATION"
          },
          "type" : "pair"
        }
      }, {
        "propertyKey" : "_enable_modify_during_lifecycle_properties",
        "propertyValue" : {
          "value" : "",
          "type" : "string"
        }
      } ],
      "relationDescriptorName" : "hostedOn_NewPetClinicApplication_be9f0cf28800410cb95b57179fa310fd__VERSION__1__GROUPID__com^hp^csa^type",
      "resourceReference" : {
        "name" : "Application Server"
      }
    } ],
    "annotations" : {
      "description" : "\n      ",
      "displayName" : "PetClinic Application",
      "y" : "-200",
      "x" : "0"
    },
    "capabilityChars" : [ ],
    "requirements" : [ ]
  }, {
    "id" : "New_PetDB_855ff95b_fde7_432e_b4dd_b7f7e8c2ba67_e6b6ca0914a34eec93438670d70e55e4__VERSION__1__GROUPID__com.hp.csa.type0001",
    "name" : "PetClinic DB Conf",
    "component" : {
      "@self" : "/csa/api/topology-model/component-type/b183f792-136a-4d14-ad0f-4545033008a0",
      "groupId" : "com.hp.csa.type",
      "artifactId" : "New_PetDB_855ff95b_fde7_432e_b4dd_b7f7e8c2ba67_e6b6ca0914a34eec93438670d70e55e4",
      "version" : "1"
    },
    "properties" : [ {
      "propertyKey" : "mysqlusername",
      "propertyValue" : {
        "value" : "root",
        "type" : "string"
      }
    }, {
      "propertyKey" : "port",
      "propertyValue" : {
        "value" : "22",
        "type" : "string"
      }
    }, {
      "propertyKey" : "servicecommand",
      "propertyValue" : {
        "value" : "sh /tmp/mysqldb_conf.sh",
        "type" : "string"
      }
    }, {
      "propertyKey" : "artifactusername",
      "propertyValue" : {
        "value" : null,
        "type" : "string"
      }
    }, {
      "propertyKey" : "artifactpassword",
      "propertyValue" : {
        "value" : null,
        "type" : "string"
      }
    }, {
      "propertyKey" : "hostname",
      "propertyValue" : {
        "value" : null,
        "type" : "string"
      }
    }, {
      "propertyKey" : "_enable_modify_during_lifecycle_properties",
      "propertyValue" : {
        "value" : "",
        "type" : "string"
      }
    }, {
      "propertyKey" : "password",
      "propertyValue" : {
        "value" : null,
        "type" : "string"
      }
    }, {
      "propertyKey" : "response",
      "propertyValue" : {
        "value" : null,
        "type" : "string"
      }
    }, {
      "propertyKey" : "remotefilepath",
      "propertyValue" : {
        "value" : "/tmp/",
        "type" : "string"
      }
    }, {
      "propertyKey" : "username",
      "propertyValue" : {
        "value" : null,
        "type" : "string"
      }
    }, {
      "propertyKey" : "_modifiable_properties",
      "propertyValue" : {
        "value" : "",
        "type" : "string"
      }
    }, {
      "propertyKey" : "mysqlpassword",
      "propertyValue" : {
        "value" : "ENC(5n6FU+PVVo8uBx2s3E2buJ1Fmti32zq8)",
        "type" : "string_encrypted"
      }
    }, {
      "propertyKey" : "privatekeyPath",
      "propertyValue" : {
        "value" : null,
        "type" : "string"
      }
    }, {
      "propertyKey" : "configurationurl",
      "propertyValue" : {
        "value" : "https://localhost:8444/csa/PCRepo/mysqldb_conf.sh",
        "type" : "string"
      }
    } ],
    "outgoingRelations" : [ {
      "relationType" : "association",
      "id" : "rel0001",
      "properties" : [ {
        "propertyKey" : "_modifiable_properties",
        "propertyValue" : {
          "value" : "",
          "type" : "string"
        }
      }, {
        "propertyKey" : "_relation_type",
        "propertyValue" : {
          "value" : {
            "first" : "Association",
            "second" : "ASSOCIATION"
          },
          "type" : "pair"
        }
      }, {
        "propertyKey" : "_enable_modify_during_lifecycle_properties",
        "propertyValue" : {
          "value" : "",
          "type" : "string"
        }
      } ],
      "relationDescriptorName" : "configuresDb_New_PetDB_855ff95b_fde7_432e_b4dd_b7f7e8c2ba67_e6b6ca0914a34eec93438670d70e55e4",
      "resourceReference" : {
        "name" : "Database Server"
      }
    } ],
    "annotations" : {
      "description" : "\n      ",
      "displayName" : "PetClinic DB Conf",
      "y" : "-200",
      "x" : "-400"
    },
    "capabilityChars" : [ ],
    "requirements" : [ ]
  }, {
    "id" : "ApplicationServer__VERSION__1__GROUPID__com.hp.csa.type0001",
    "name" : "Application Server",
    "component" : {
      "@self" : "/csa/api/topology-model/component-type/2966f971-29e9-42b2-b91a-1673711407fb",
      "groupId" : "com.hp.csa.type",
      "artifactId" : "ApplicationServer",
      "version" : "1"
    },
    "properties" : [ {
      "propertyKey" : "port",
      "propertyValue" : {
        "value" : null,
        "type" : "string"
      }
    }, {
      "propertyKey" : "username",
      "propertyValue" : {
        "value" : null,
        "type" : "string"
      }
    }, {
      "propertyKey" : "protocol",
      "propertyValue" : {
        "value" : null,
        "type" : "string"
      }
    }, {
      "propertyKey" : "_modifiable_properties",
      "propertyValue" : {
        "value" : "",
        "type" : "string"
      }
    }, {
      "propertyKey" : "installPath",
      "propertyValue" : {
        "value" : null,
        "type" : "string"
      }
    }, {
      "propertyKey" : "hostname",
      "propertyValue" : {
        "value" : null,
        "type" : "string"
      }
    }, {
      "propertyKey" : "_enable_modify_during_lifecycle_properties",
      "propertyValue" : {
        "value" : "",
        "type" : "string"
      }
    }, {
      "propertyKey" : "password",
      "propertyValue" : {
        "value" : null,
        "type" : "string"
      }
    } ],
    "outgoingRelations" : [ ],
    "annotations" : {
      "description" : "\n      ",
      "displayName" : "Application Server",
      "y" : "0",
      "x" : "0"
    },
    "capabilityChars" : [ ],
    "requirements" : [ {
      "id" : "541b8c11-1399-442b-bef9-b28d9a12dd38",
      "name" : "Tomcat 7",
      "description" : "Tomcat 7"
    }, {
      "id" : "2234605c-9f31-4d25-ad56-8889a3d1be48",
      "name" : "Infra",
      "description" : ""
    } ]
  }, {
    "id" : "DatabaseServer__VERSION__1__GROUPID__com.hp.csa.type0001",
    "name" : "Database Server",
    "component" : {
      "@self" : "/csa/api/topology-model/component-type/61614206-5669-47b8-bc9c-b247248f440d",
      "groupId" : "com.hp.csa.type",
      "artifactId" : "DatabaseServer",
      "version" : "1"
    },
    "properties" : [ {
      "propertyKey" : "port",
      "propertyValue" : {
        "value" : null,
        "type" : "string"
      }
    }, {
      "propertyKey" : "username",
      "propertyValue" : {
        "value" : null,
        "type" : "string"
      }
    }, {
      "propertyKey" : "_modifiable_properties",
      "propertyValue" : {
        "value" : "",
        "type" : "string"
      }
    }, {
      "propertyKey" : "hostname",
      "propertyValue" : {
        "value" : null,
        "type" : "string"
      }
    }, {
      "propertyKey" : "_enable_modify_during_lifecycle_properties",
      "propertyValue" : {
        "value" : "",
        "type" : "string"
      }
    }, {
      "propertyKey" : "type",
      "propertyValue" : {
        "value" : null,
        "type" : "string"
      }
    }, {
      "propertyKey" : "password",
      "propertyValue" : {
        "value" : null,
        "type" : "string"
      }
    } ],
    "outgoingRelations" : [ ],
    "annotations" : {
      "description" : "\n      ",
      "displayName" : "Database Server",
      "y" : "0",
      "x" : "-400"
    },
    "capabilityChars" : [ ],
    "requirements" : [ {
      "id" : "ca4a0d9b-2d36-43a8-a37e-c8933e779867",
      "name" : "MySQL 5.6",
      "description" : "MySQL 5.6"
    } ]
  } ],
  "revision" : 1,
  "properties" : [ {
    "propertyKey" : "metamodelId",
    "propertyValue" : {
      "value" : "test",
      "type" : "string"
    }
  }, {
    "propertyKey" : "is_express",
    "propertyValue" : {
      "value" : "false",
      "type" : "boolean"
    }
  } ],
  "iconUrl" : "/csa/images/library/pets.png",
  "tagIds" : [ ],
  "state" : "UNLOCKED",
  "hidden" : false,
  "partial" : true,
  "profiles" : [ ],
  "annotations" : {
    "providerType" : "independent",
    "serviceBlueprintId" : "e4dbd60f4c4dcd58014c4ff2ebd70018"
  }
}
